code/debug.vcd
$date
	Thu Dec 19 13:14:21 2019
$end
$version
	Icarus Verilog
$end
$timescale
	1s
$end
$scope module TestBench $end
$var wire 256 ! mem_cpu_data [255:0] $end
$var wire 1 " mem_cpu_ack $end
$var wire 1 # cpu_mem_write $end
$var wire 1 $ cpu_mem_enable $end
$var wire 256 % cpu_mem_data [255:0] $end
$var wire 32 & cpu_mem_addr [31:0] $end
$var reg 1 ' Clk $end
$var reg 1 ( Reset $end
$var reg 1 ) Start $end
$var reg 27 * address [26:0] $end
$var reg 1 + flag $end
$var reg 5 , index [4:0] $end
$var reg 24 - tag [23:0] $end
$var integer 32 . counter [31:0] $end
$var integer 32 / i [31:0] $end
$var integer 32 0 outfile [31:0] $end
$var integer 32 1 outfile2 [31:0] $end
$scope module CPU $end
$var wire 1 ' clk_i $end
$var wire 1 ( rst_i $end
$var wire 1 ) start_i $end
$var wire 1 # mem_write_o $end
$var wire 1 $ mem_enable_o $end
$var wire 256 2 mem_data_o [255:0] $end
$var wire 256 3 mem_data_i [255:0] $end
$var wire 32 4 mem_addr_o [31:0] $end
$var wire 1 " mem_ack_i $end
$var wire 10 5 funct_ID [9:0] $end
$var wire 5 6 RS2addr_ID [4:0] $end
$var wire 5 7 RS1addr_ID [4:0] $end
$var wire 5 8 RDaddr_ID [4:0] $end
$var wire 7 9 Op_ID [6:0] $end
$scope module ALU $end
$var wire 32 : data_o [31:0] $end
$var wire 32 ; data2_i [31:0] $end
$var wire 32 < data1_i [31:0] $end
$var wire 3 = ALUCtrl_i [2:0] $end
$upscope $end
$scope module ALU_Control $end
$var wire 10 > funct_i [9:0] $end
$var wire 7 ? funct7 [6:0] $end
$var wire 3 @ funct3 [2:0] $end
$var wire 2 A ALUOp_i [1:0] $end
$var wire 3 B ALUCtrl_o [2:0] $end
$upscope $end
$scope module ALU_MEM_MUX32 $end
$var wire 1 C select_i $end
$var wire 32 D data_o [31:0] $end
$var wire 32 E data2_i [31:0] $end
$var wire 32 F data1_i [31:0] $end
$upscope $end
$scope module Adder1 $end
$var wire 32 G data2_in [31:0] $end
$var wire 32 H data_o [31:0] $end
$var wire 32 I data1_in [31:0] $end
$upscope $end
$scope module Adder2 $end
$var wire 32 J data_o [31:0] $end
$var wire 32 K data2_in [31:0] $end
$var wire 32 L data1_in [31:0] $end
$upscope $end
$scope module Control $end
$var wire 1 ' clk_i $end
$var wire 1 ( rst_i $end
$var wire 1 ) start_i $end
$var wire 1 M Zero_i $end
$var wire 1 N RegWrite_o $end
$var wire 7 O Op_i [6:0] $end
$var wire 1 P MemtoReg_o $end
$var wire 1 Q MemWrite_o $end
$var wire 1 R MemRead_o $end
$var wire 1 S Branch_o $end
$var wire 1 T ALUSrc_o $end
$var wire 2 U ALUOp_o [1:0] $end
$upscope $end
$scope module EX_MEM $end
$var wire 32 V ALUResult_i [31:0] $end
$var wire 1 ' clk_i $end
$var wire 1 ( rst_i $end
$var wire 1 ) start_i $end
$var wire 1 W mem_stall_i $end
$var wire 1 X RegWrite_i $end
$var wire 32 Y RS2data_i [31:0] $end
$var wire 5 Z RDaddr_i [4:0] $end
$var wire 1 [ MemtoReg_i $end
$var wire 1 \ MemWrite_i $end
$var wire 1 ] MemRead_i $end
$var reg 32 ^ ALUResult_o [31:0] $end
$var reg 1 _ MemRead_o $end
$var reg 1 ` MemWrite_o $end
$var reg 1 a MemtoReg_o $end
$var reg 5 b RDaddr_o [4:0] $end
$var reg 32 c RS2data_o [31:0] $end
$var reg 1 d RegWrite_o $end
$upscope $end
$scope module Equal $end
$var wire 32 e data2_i [31:0] $end
$var wire 32 f data1_i [31:0] $end
$var wire 1 M Zero_o $end
$upscope $end
$scope module Forwarding $end
$var wire 5 g RDaddr_EX_MEM_i [4:0] $end
$var wire 1 d RegWrite_EX_MEM $end
$var wire 1 h RegWrite_MEM_WB $end
$var wire 5 i RS2addr_ID_EX_i [4:0] $end
$var wire 5 j RS1addr_ID_EX_i [4:0] $end
$var wire 5 k RDaddr_MEM_WB_i [4:0] $end
$var wire 2 l ALUSrc2_select_o [1:0] $end
$var wire 2 m ALUSrc1_select_o [1:0] $end
$upscope $end
$scope module HazardDetection $end
$var wire 1 S Branch_i $end
$var wire 1 n IDflush_o $end
$var wire 1 o IF_IDWrite_o $end
$var wire 1 p IF_IDflush_o $end
$var wire 1 q PCWrite_o $end
$var wire 1 r stall_o $end
$var wire 5 s RS2addr_ID_i [4:0] $end
$var wire 5 t RS1addr_ID_i [4:0] $end
$var wire 5 u RDaddr_EX_i [4:0] $end
$var wire 1 ] MemRead_EX_i $end
$upscope $end
$scope module ID_EX $end
$var wire 1 ' clk_i $end
$var wire 10 v funct_i [9:0] $end
$var wire 1 ( rst_i $end
$var wire 1 ) start_i $end
$var wire 32 w pc_i [31:0] $end
$var wire 1 W mem_stall_i $end
$var wire 32 x imm_i [31:0] $end
$var wire 1 y RegWrite_i $end
$var wire 32 z RS2data_i [31:0] $end
$var wire 5 { RS2addr_i [4:0] $end
$var wire 32 | RS1data_i [31:0] $end
$var wire 5 } RS1addr_i [4:0] $end
$var wire 5 ~ RDaddr_i [4:0] $end
$var wire 1 !" MemtoReg_i $end
$var wire 1 "" MemWrite_i $end
$var wire 1 #" MemRead_i $end
$var wire 1 $" ALUSrc_i $end
$var wire 2 %" ALUOp_i [1:0] $end
$var reg 2 &" ALUOp_o [1:0] $end
$var reg 1 '" ALUSrc_o $end
$var reg 1 ] MemRead_o $end
$var reg 1 \ MemWrite_o $end
$var reg 1 [ MemtoReg_o $end
$var reg 5 (" RDaddr_o [4:0] $end
$var reg 5 )" RS1addr_o [4:0] $end
$var reg 32 *" RS1data_o [31:0] $end
$var reg 5 +" RS2addr_o [4:0] $end
$var reg 32 ," RS2data_o [31:0] $end
$var reg 1 X RegWrite_o $end
$var reg 10 -" funct_o [9:0] $end
$var reg 32 ." imm_o [31:0] $end
$var reg 32 /" pc_o [31:0] $end
$upscope $end
$scope module IF_ID $end
$var wire 1 o IF_IDWrite_i $end
$var wire 1 p IF_IDflush_i $end
$var wire 1 ' clk_i $end
$var wire 1 ( rst_i $end
$var wire 1 ) start_i $end
$var wire 32 0" pc_i [31:0] $end
$var wire 1 W mem_stall_i $end
$var wire 32 1" instr_i [31:0] $end
$var reg 32 2" instr_o [31:0] $end
$var reg 32 3" pc_o [31:0] $end
$upscope $end
$scope module Imm_Gen $end
$var wire 32 4" data_i [31:0] $end
$var wire 12 5" imm [11:0] $end
$var wire 32 6" data_o [31:0] $end
$var wire 7 7" Op [6:0] $end
$upscope $end
$scope module Instruction_Memory $end
$var wire 32 8" instr_o [31:0] $end
$var wire 32 9" addr_i [31:0] $end
$upscope $end
$scope module MEM_WB $end
$var wire 32 :" ALUResult_i [31:0] $end
$var wire 1 a MemtoReg_i $end
$var wire 5 ;" RDaddr_i [4:0] $end
$var wire 1 d RegWrite_i $end
$var wire 1 ' clk_i $end
$var wire 1 ( rst_i $end
$var wire 1 ) start_i $end
$var wire 1 W mem_stall_i $end
$var wire 32 <" Memdata_i [31:0] $end
$var reg 32 =" ALUResult_o [31:0] $end
$var reg 32 >" Memdata_o [31:0] $end
$var reg 1 C MemtoReg_o $end
$var reg 5 ?" RDaddr_o [4:0] $end
$var reg 1 h RegWrite_o $end
$upscope $end
$scope module MUX7 $end
$var wire 2 @" ALUOp_i [1:0] $end
$var wire 1 T ALUSrc_i $end
$var wire 1 S Branch_i $end
$var wire 1 R MemRead_i $end
$var wire 1 Q MemWrite_i $end
$var wire 1 P MemtoReg_i $end
$var wire 1 N RegWrite_i $end
$var wire 1 n flush_i $end
$var wire 1 y RegWrite_o $end
$var wire 1 !" MemtoReg_o $end
$var wire 1 "" MemWrite_o $end
$var wire 1 #" MemRead_o $end
$var wire 1 A" Branch_o $end
$var wire 1 $" ALUSrc_o $end
$var wire 2 B" ALUOp_o [1:0] $end
$upscope $end
$scope module PC $end
$var wire 1 q PCWrite_i $end
$var wire 1 ' clk_i $end
$var wire 1 ( rst_i $end
$var wire 1 ) start_i $end
$var wire 1 W stall_i $end
$var wire 32 C" pc_i [31:0] $end
$var reg 32 D" pc_o [31:0] $end
$upscope $end
$scope module PC_MUX32 $end
$var wire 32 E" data1_i [31:0] $end
$var wire 32 F" data2_i [31:0] $end
$var wire 1 A" select_i $end
$var wire 32 G" data_o [31:0] $end
$upscope $end
$scope module RS1_forwarding_MUX $end
$var wire 32 H" ALUreult_MEM_i [31:0] $end
$var wire 32 I" RDdata_WB_i [31:0] $end
$var wire 32 J" data_EX_i [31:0] $end
$var wire 2 K" select_i [1:0] $end
$var wire 32 L" data_o [31:0] $end
$upscope $end
$scope module RS2_IMM_MUX32 $end
$var wire 32 M" data2_i [31:0] $end
$var wire 1 '" select_i $end
$var wire 32 N" data_o [31:0] $end
$var wire 32 O" data1_i [31:0] $end
$upscope $end
$scope module RS2_forwarding_MUX $end
$var wire 32 P" ALUreult_MEM_i [31:0] $end
$var wire 32 Q" RDdata_WB_i [31:0] $end
$var wire 32 R" data_EX_i [31:0] $end
$var wire 2 S" select_i [1:0] $end
$var wire 32 T" data_o [31:0] $end
$upscope $end
$scope module Registers $end
$var wire 5 U" RDaddr_i [4:0] $end
$var wire 32 V" RDdata_i [31:0] $end
$var wire 5 W" RS1addr_i [4:0] $end
$var wire 5 X" RS2addr_i [4:0] $end
$var wire 1 h RegWrite_i $end
$var wire 1 ' clk_i $end
$var wire 32 Y" RS2data_o [31:0] $end
$var wire 32 Z" RS1data_o [31:0] $end
$upscope $end
$scope module Shift $end
$var wire 32 [" data_i [31:0] $end
$var wire 32 \" data_o [31:0] $end
$upscope $end
$scope module dcache $end
$var wire 1 ]" cache_dirty $end
$var wire 1 ^" cache_sram_enable $end
$var wire 5 _" cache_sram_index [4:0] $end
$var wire 1 `" cache_sram_write $end
$var wire 1 ' clk_i $end
$var wire 256 a" mem_data_o [255:0] $end
$var wire 1 $ mem_enable_o $end
$var wire 1 # mem_write_o $end
$var wire 1 _ p1_MemRead_i $end
$var wire 1 ` p1_MemWrite_i $end
$var wire 32 b" p1_addr_i [31:0] $end
$var wire 32 c" p1_data_i [31:0] $end
$var wire 32 d" p1_data_o [31:0] $end
$var wire 1 e" p1_req $end
$var wire 1 W p1_stall_o $end
$var wire 1 ( rst_i $end
$var wire 1 f" write_hit $end
$var wire 1 g" sram_valid $end
$var wire 22 h" sram_tag [21:0] $end
$var wire 1 i" sram_dirty $end
$var wire 24 j" sram_cache_tag [23:0] $end
$var wire 256 k" sram_cache_data [255:0] $end
$var wire 256 l" r_hit_data [255:0] $end
$var wire 22 m" p1_tag [21:0] $end
$var wire 5 n" p1_offset [4:0] $end
$var wire 5 o" p1_index [4:0] $end
$var wire 8 p" offset [7:0] $end
$var wire 256 q" mem_data_i [255:0] $end
$var wire 32 r" mem_addr_o [31:0] $end
$var wire 1 " mem_ack_i $end
$var wire 1 s" hit $end
$var wire 24 t" cache_sram_tag [23:0] $end
$var wire 256 u" cache_sram_data [255:0] $end
$var reg 1 v" cache_we $end
$var reg 1 w" mem_enable $end
$var reg 1 x" mem_write $end
$var reg 32 y" p1_data [31:0] $end
$var reg 3 z" state [2:0] $end
$var reg 256 {" w_hit_data [255:0] $end
$var reg 1 |" write_back $end
$scope module dcache_data_sram $end
$var wire 5 }" addr_i [4:0] $end
$var wire 1 ' clk_i $end
$var wire 256 ~" data_i [255:0] $end
$var wire 1 ^" enable_i $end
$var wire 1 `" write_i $end
$var wire 256 !# data_o [255:0] $end
$upscope $end
$scope module dcache_tag_sram $end
$var wire 5 "# addr_i [4:0] $end
$var wire 1 ' clk_i $end
$var wire 24 ## data_i [23:0] $end
$var wire 1 ^" enable_i $end
$var wire 1 `" write_i $end
$var wire 24 $# data_o [23:0] $end
$upscope $end
$upscope $end
$upscope $end
$scope module Data_Memory $end
$var wire 1 " ack_o $end
$var wire 32 %# addr_i [31:0] $end
$var wire 1 ' clk_i $end
$var wire 256 &# data_i [255:0] $end
$var wire 256 '# data_o [255:0] $end
$var wire 1 $ enable_i $end
$var wire 1 ( rst_i $end
$var wire 1 # write_i $end
$var wire 27 (# addr [26:0] $end
$var reg 4 )# count [3:0] $end
$var reg 256 *# data [255:0] $end
$var reg 2 +# state [1:0] $end
$upscope $end
$upscope $end
$enddefinitions $end
#0
$dumpvars
b0 +#
bx *#
b0 )#
b0 (#
bx '#
b0 &#
b0 %#
b0 $#
b100000000000000000000000 ##
b0 "#
b0 !#
bx ~"
b0 }"
0|"
bx00000000000000000000000000000000 {"
b0 z"
bx y"
0x"
0w"
0v"
bx u"
b100000000000000000000000 t"
0s"
b0 r"
bx q"
b0 p"
b0 o"
b0 n"
b0 m"
bx l"
b0 k"
b0 j"
0i"
b0 h"
0g"
0f"
0e"
bx d"
b0 c"
b0 b"
b0 a"
0`"
b0 _"
0^"
0]"
bz0 \"
bz ["
b0 Z"
b0 Y"
b0 X"
b0 W"
b0 V"
b0 U"
b0 T"
b0 S"
b0 R"
b0 Q"
b0 P"
b0 O"
b0 N"
b0 M"
b0 L"
b0 K"
b0 J"
b0 I"
b0 H"
b100 G"
bx F"
b100 E"
b0 D"
b100 C"
b0 B"
0A"
b0 @"
b0 ?"
b0 >"
b0 ="
bx <"
b0 ;"
b0 :"
b0 9"
b10000010011 8"
b0 7"
bz 6"
bz 5"
b0 4"
b0 3"
b0 2"
b10000010011 1"
b0 0"
b0 /"
b0 ."
b0 -"
b0 ,"
b0 +"
b0 *"
b0 )"
b0 ("
0'"
b0 &"
b0 %"
0$"
0#"
0""
0!"
b0 ~
b0 }
b0 |
b0 {
b0 z
0y
bz x
b0 w
b0 v
b0 u
b0 t
b0 s
0r
1q
0p
1o
0n
b0 m
b0 l
b0 k
b0 j
b0 i
0h
b0 g
b0 f
b0 e
0d
b0 c
b0 b
0a
0`
0_
b0 ^
0]
0\
0[
b0 Z
b0 Y
0X
0W
b0 V
b0 U
0T
0S
0R
0Q
0P
b0 O
0N
1M
b0 L
bz0 K
bx J
b0 I
b100 H
b100 G
b0 F
b0 E
b0 D
0C
b10 B
b0 A
b0 @
b0 ?
b0 >
b10 =
b0 <
b0 ;
b0 :
b0 9
b0 8
b0 7
b0 6
b0 5
b0 4
bx 3
b0 2
b101 1
b11 0
b100000 /
b0 .
bx -
bx ,
x+
bx *
0)
0(
1'
b0 &
b0 %
0$
0#
0"
bx !
$end
#12
1)
1(
#25
0'
#50
1y
b0 J
b0 F"
1N
1$"
b0 K
b0 \"
1T
b0 x
b0 6"
b0 ["
b0 5"
b10011 9
b10011 O
b1000 8
b1000 ~
b10011 7"
b100000000010000000100011 1"
b100000000010000000100011 8"
b1000 C"
b1000 G"
bx E
bx >"
bz ."
bz M"
b10000010011 2"
b10000010011 4"
b1000 H
b1000 E"
b100 I
b100 0"
b100 9"
b100 D"
b1 .
0+
1'
#75
0'
#100
0y
0N
1$"
1""
b0 K
b0 \"
1T
1Q
b0 x
b0 6"
b0 ["
b0 5"
b10001000100000000010000010011 1"
b10001000100000000010000010011 8"
b1100 C"
b1100 G"
b100011 9
b100011 O
b1000 6
b1000 s
b1000 {
b1000 X"
b0 8
b0 ~
b10 5
b10 v
b100011 7"
b1100 H
b1100 E"
b1000 I
b1000 0"
b1000 9"
b1000 D"
b100000000010000000100011 2"
b100000000010000000100011 4"
b100 J
b100 F"
b100 L
b100 w
b100 3"
b1000 Z
b1000 u
b1000 ("
b0 ."
b0 M"
1X
1'"
b10 .
1'
#125
0'
#150
1y
1N
0""
b1000100010 K
b1000100010 \"
b10 l
b10 S"
0Q
b100010001 x
b100010001 6"
b100010001 ["
b100010001 5"
b10 @
b10011 9
b10011 O
b10001 6
b10001 s
b10001 {
b10001 X"
b1000 8
b1000 ~
b1000000 5
b1000000 v
b10011 7"
b100000000010001000100011 1"
b100000000010001000100011 8"
b10000 C"
b10000 G"
b1000 b
b1000 g
b1000 ;"
1d
b1000 i
b1000 +"
b0 Z
b0 u
b0 ("
b10 >
b10 -"
0X
1\
b100 /"
b10001000100000000010000010011 2"
b10001000100000000010000010011 4"
b1000101010 J
b1000101010 F"
b1000 L
b1000 w
b1000 3"
b10000 H
b10000 E"
b1100 I
b1100 0"
b1100 9"
b1100 D"
b11 .
1'
#175
0'
#200
0y
0N
1$"
1""
b1000 K
b1000 \"
1T
1Q
b100 x
b100 6"
b100 ["
b100 5"
b100010001 :
b100010001 V
b100010001 ;
b100010001 N"
b0 l
b0 S"
1W
b100010001000000000010000010011 1"
b100010001000000000010000010011 8"
b10100 C"
b10100 G"
b100011 9
b100011 O
b1000 6
b1000 s
b1000 {
b1000 X"
b100 8
b100 ~
b10 5
b10 v
b100011 7"
b1000 ?
b0 @
1^"
1e"
b10100 H
b10100 E"
b10000 I
b10000 0"
b10000 9"
b10000 D"
b100000000010001000100011 2"
b100000000010001000100011 4"
b10100 J
b10100 F"
b1100 L
b1100 w
b1100 3"
b10001 i
b10001 +"
b1000 Z
b1000 u
b1000 ("
b100010001 ."
b100010001 M"
b1000000 >
b1000000 -"
1X
0\
b1000 /"
b0 b
b0 g
b0 ;"
0d
1`
b1000 k
b1000 ?"
b1000 U"
1h
b100 .
1'
#225
0'
#250
b100 z"
b101 .
1+
1'
#275
0'
#300
1$
1w"
b1 z"
b110 .
1'
#325
0'
#350
b1 )#
b1 +#
b111 .
1'
#375
0'
#400
b10 )#
b1000 .
1'
#425
0'
#450
b11 )#
b1001 .
1'
#475
0'
#500
b100 )#
b1010 .
1'
#525
0'
#550
b101 )#
b1011 .
1'
#575
0'
#600
b110 )#
b1100 .
1'
#625
0'
#650
b111 )#
b1101 .
1'
#675
0'
#700
b1000 )#
b1110 .
1'
#725
0'
#750
1"
b1001 )#
b1111 .
1'
#775
0'
#800
1`"
0"
1v"
0$
0w"
b10 z"
b0 )#
b0 +#
b0 {"
b101 <"
b101 d"
b101 y"
b101 l"
b101 u"
b101 ~"
b101 !
b101 3
b101 q"
b101 '#
b101 *#
b10000 .
1'
#825
0'
#850
0W
b0 u"
b0 ~"
b110000000000000000000000 t"
b110000000000000000000000 ##
1]"
1f"
1s"
1g"
1`"
b101 %
b101 2
b101 a"
b101 &#
b101 k"
b101 !#
b100000000000000000000000 j"
b100000000000000000000000 $#
0v"
b0 z"
b10001 .
1'
#875
0'
#900
b101 {"
b101 u"
b101 ~"
1y
0s"
1N
0""
b10001000100 K
b10001000100 \"
b1000 (#
b0 <
b0 L"
0Q
b1000100010 x
b1000100010 6"
b1000100010 ["
b1000100010 5"
b100010001 Y
b100010001 O"
b100010001 T"
b100 :
b100 V
b10000000 p"
0g"
b0 m
b0 K"
b0 <"
b0 d"
b0 y"
b10 l
b10 S"
b100 ;
b100 N"
0`"
b100000000 &
b100000000 4
b100000000 r"
b100000000 %#
0i"
b101 l"
b100000000010010000100011 1"
b100000000010010000100011 8"
b11000 C"
b11000 G"
b10011 9
b10011 O
b10 6
b10 s
b10 {
b10 X"
b1000 8
b1000 ~
b10001000 5
b10001000 v
b10011 7"
b0 ?
b10 @
0^"
0e"
b100000000000000000000000 t"
b100000000000000000000000 ##
0]"
0f"
b10001 n"
b1000 _"
b1000 }"
b1000 "#
b1000 o"
b0 j"
b0 $#
b0 %
b0 2
b0 a"
b0 &#
b0 k"
b0 !#
b11000 H
b11000 E"
b10100 I
b10100 0"
b10100 9"
b10100 D"
b100010001000000000010000010011 2"
b100010001000000000010000010011 4"
b10001010100 J
b10001010100 F"
b10000 L
b10000 w
b10000 3"
b1000 i
b1000 +"
b100 Z
b100 u
b100 ("
b100 ."
b100 M"
b10 >
b10 -"
0X
1\
b1100 /"
b1000 b
b1000 g
b1000 ;"
1d
0`
b100010001 ^
b100010001 :"
b100010001 H"
b100010001 P"
b100010001 b"
b0 k
b0 ?"
b0 U"
b101 E
b101 >"
0h
b10010 .
0+
1'
#925
0'
#950
1`"
b0 l"
b10001000100000000000000000000000000000000 u"
b10001000100000000000000000000000000000000 ~"
b110000000000000000000000 t"
b110000000000000000000000 ##
1]"
1f"
1s"
0y
0M
b0 (#
0N
1$"
1""
b10000 K
b10000 \"
1i"
1g"
b100000 p"
b1000100010 :
b1000100010 V
1T
1Q
b1000 x
b1000 6"
b1000 ["
b1000 5"
b100010001 e
b100010001 z
b100010001 Y"
0W
b110000000000000000000000 j"
b110000000000000000000000 $#
b0 Y
b0 O"
b0 T"
b0 &
b0 4
b0 r"
b0 %#
b0 l
b0 S"
b1000100010 ;
b1000100010 N"
b100010001 D
b100010001 I"
b100010001 Q"
b100010001 V"
1^"
1e"
b10001000100000000000000000000000000000000 {"
b100 n"
b0 _"
b0 }"
b0 "#
b0 o"
b10001 ?
b0 @
b100011 9
b100011 O
b1000 6
b1000 s
b1000 {
b1000 X"
b10 5
b10 v
b100011 7"
b110011001100000000010000010011 1"
b110011001100000000010000010011 8"
b11100 C"
b11100 G"
b1000 k
b1000 ?"
b1000 U"
b100010001 F
b100010001 ="
b0 E
b0 >"
1h
b100 b
b100 g
b100 ;"
0d
1`
b100010001 c
b100010001 c"
b100 ^
b100 :"
b100 H"
b100 P"
b100 b"
b10 i
b10 +"
b1000 Z
b1000 u
b1000 ("
b1000100010 ."
b1000100010 M"
b10001000 >
b10001000 -"
1X
0\
b10000 /"
b100000000010010000100011 2"
b100000000010010000100011 4"
b100100 J
b100100 F"
b10100 L
b10100 w
b10100 3"
b11100 H
b11100 E"
b11000 I
b11000 0"
b11000 9"
b11000 D"
b10011 .
1'
#975
0'
#1000
1y
0s"
1N
0""
b11001100110 K
b11001100110 \"
b10001 (#
1M
0Q
b1100110011 x
b1100110011 6"
b1100110011 ["
b1100110011 5"
b1000 :
b1000 V
b0 p"
0i"
0g"
b101 <"
b101 d"
b101 y"
b10 l
b10 S"
b1000 ;
b1000 N"
0`"
b101 u"
b101 ~"
b1000100000 &
b1000100000 4
b1000100000 r"
b1000100000 %#
b0 j"
b0 $#
b0 e
b0 z
b0 Y"
b101 l"
b100000000010011000100011 1"
b100000000010011000100011 8"
b100000 C"
b100000 G"
b10011 9
b10011 O
b10011 6
b10011 s
b10011 {
b10011 X"
b11001000 5
b11001000 v
b10011 7"
b1000100010 Y
b1000100010 O"
b1000100010 T"
b0 ?
b10 @
0^"
0e"
b100000000000000000000000 t"
b100000000000000000000000 ##
0]"
0f"
b0 {"
b10 n"
b10001 _"
b10001 }"
b10001 "#
b10001 o"
b100 D
b100 I"
b100 Q"
b100 V"
b0 %
b0 2
b0 a"
b0 &#
b0 k"
b0 !#
b100000 H
b100000 E"
b11100 I
b11100 0"
b11100 9"
b11100 D"
b110011001100000000010000010011 2"
b110011001100000000010000010011 4"
b11001111110 J
b11001111110 F"
b11000 L
b11000 w
b11000 3"
b1000 i
b1000 +"
b1000 ."
b1000 M"
b100010001 ,"
b100010001 R"
b10 >
b10 -"
0X
1\
b10100 /"
b1000 b
b1000 g
b1000 ;"
1d
0`
b0 c
b0 c"
b1000100010 ^
b1000100010 :"
b1000100010 H"
b1000100010 P"
b1000100010 b"
b100 k
b100 ?"
b100 U"
b100 F
b100 ="
0h
b10100 .
1'
#1025
0'
#1050
1`"
b10001000100000000000000000000000000000000 l"
b10001000100000000000000000000000010001000100000000000000000000000000000000 u"
b10001000100000000000000000000000010001000100000000000000000000000000000000 ~"
b110000000000000000000000 t"
b110000000000000000000000 ##
1]"
1f"
1s"
0y
b0 <"
b0 d"
b0 y"
b0 (#
0N
1$"
1""
0M
b11000 K
b11000 \"
1i"
1g"
b1000000 p"
b1100110011 :
b1100110011 V
1T
1Q
b1100 x
b1100 6"
b1100 ["
b1100 5"
0W
b10001000100000000000000000000000000000000 %
b10001000100000000000000000000000000000000 2
b10001000100000000000000000000000000000000 a"
b10001000100000000000000000000000000000000 &#
b10001000100000000000000000000000000000000 k"
b10001000100000000000000000000000000000000 !#
b110000000000000000000000 j"
b110000000000000000000000 $#
b0 Y
b0 O"
b0 T"
b0 &
b0 4
b0 r"
b0 %#
b0 l
b0 S"
b1100110011 ;
b1100110011 N"
b1000100010 e
b1000100010 z
b1000100010 Y"
b1000100010 D
b1000100010 I"
b1000100010 Q"
b1000100010 V"
1^"
1e"
b10001000100000000000000000000000010001000100000000000000000000000000000000 {"
b1000 n"
b0 _"
b0 }"
b0 "#
b0 o"
b11001 ?
b0 @
b100011 9
b100011 O
b1000 6
b1000 s
b1000 {
b1000 X"
b1100 8
b1100 ~
b10 5
b10 v
b100011 7"
b1000100010000000000010000010011 1"
b1000100010000000000010000010011 8"
b100100 C"
b100100 G"
b1000 k
b1000 ?"
b1000 U"
b1000100010 F
b1000100010 ="
b101 E
b101 >"
1h
0d
1`
b1000100010 c
b1000100010 c"
b1000 ^
b1000 :"
b1000 H"
b1000 P"
b1000 b"
b10011 i
b10011 +"
b1100110011 ."
b1100110011 M"
b0 ,"
b0 R"
b11001000 >
b11001000 -"
1X
0\
b11000 /"
b100000000010011000100011 2"
b100000000010011000100011 4"
b110100 J
b110100 F"
b11100 L
b11100 w
b11100 3"
b100100 H
b100100 E"
b100000 I
b100000 0"
b100000 9"
b100000 D"
b10101 .
1'
#1075
0'
#1100
1y
0s"
1N
0""
b100010001000 K
b100010001000 \"
b11001 (#
1M
0Q
b10001000100 x
b10001000100 6"
b10001000100 ["
b10001000100 5"
b1100 :
b1100 V
b10000000 p"
0i"
0g"
b0 <"
b0 d"
b0 y"
b10 l
b10 S"
b1100 ;
b1100 N"
0`"
b101 u"
b101 ~"
b1100100000 &
b1100100000 4
b1100100000 r"
b1100100000 %#
b0 j"
b0 $#
b0 e
b0 z
b0 Y"
b101 l"
b100000000010100000100011 1"
b100000000010100000100011 8"
b101000 C"
b101000 G"
b10011 9
b10011 O
b100 6
b100 s
b100 {
b100 X"
b1000 8
b1000 ~
b100010000 5
b100010000 v
b10011 7"
b1100110011 Y
b1100110011 O"
b1100110011 T"
b0 ?
b10 @
0^"
0e"
b100000000000000000000000 t"
b100000000000000000000000 ##
0]"
0f"
b101 {"
b10011 n"
b11001 _"
b11001 }"
b11001 "#
b11001 o"
b1000 D
b1000 I"
b1000 Q"
b1000 V"
b0 %
b0 2
b0 a"
b0 &#
b0 k"
b0 !#
b101000 H
b101000 E"
b100100 I
b100100 0"
b100100 9"
b100100 D"
b1000100010000000000010000010011 2"
b1000100010000000000010000010011 4"
b100010101000 J
b100010101000 F"
b100000 L
b100000 w
b100000 3"
b1000 i
b1000 +"
b1100 Z
b1100 u
b1100 ("
b1100 ."
b1100 M"
b1000100010 ,"
b1000100010 R"
b10 >
b10 -"
0X
1\
b11100 /"
1d
0`
b0 c
b0 c"
b1100110011 ^
b1100110011 :"
b1100110011 H"
b1100110011 P"
b1100110011 b"
b1000 F
b1000 ="
b0 E
b0 >"
0h
b10110 .
1'
#1125
0'
#1150
1`"
b10001000100000000000000000000000010001000100000000000000000000000000000000 l"
b1100110011000000000000000000000010001000100000000000000000000000010001000100000000000000000000000000000000 u"
b1100110011000000000000000000000010001000100000000000000000000000010001000100000000000000000000000000000000 ~"
b110000000000000000000000 t"
b110000000000000000000000 ##
1]"
1f"
1s"
0y
b0 (#
0N
1$"
1""
0M
b100000 K
b100000 \"
1i"
1g"
b1100000 p"
b10001000100 :
b10001000100 V
1T
1Q
b10000 x
b10000 6"
b10000 ["
b10000 5"
0W
b10001000100000000000000000000000010001000100000000000000000000000000000000 %
b10001000100000000000000000000000010001000100000000000000000000000000000000 2
b10001000100000000000000000000000010001000100000000000000000000000000000000 a"
b10001000100000000000000000000000010001000100000000000000000000000000000000 &#
b10001000100000000000000000000000010001000100000000000000000000000000000000 k"
b10001000100000000000000000000000010001000100000000000000000000000000000000 !#
b110000000000000000000000 j"
b110000000000000000000000 $#
b0 Y
b0 O"
b0 T"
b0 &
b0 4
b0 r"
b0 %#
b0 l
b0 S"
b10001000100 ;
b10001000100 N"
b1100110011 e
b1100110011 z
b1100110011 Y"
b1100110011 D
b1100110011 I"
b1100110011 Q"
b1100110011 V"
1^"
1e"
b1100110011000000000000000000000010001000100000000000000000000000010001000100000000000000000000000000000000 {"
b1100 n"
b0 _"
b0 }"
b0 "#
b0 o"
b100010 ?
b0 @
b100011 9
b100011 O
b1000 6
b1000 s
b1000 {
b1000 X"
b10000 8
b10000 ~
b10 5
b10 v
b100011 7"
b1010101010100000000010000010011 1"
b1010101010100000000010000010011 8"
b101100 C"
b101100 G"
b1100110011 F
b1100110011 ="
1h
b1100 b
b1100 g
b1100 ;"
0d
1`
b1100110011 c
b1100110011 c"
b1100 ^
b1100 :"
b1100 H"
b1100 P"
b1100 b"
b100 i
b100 +"
b1000 Z
b1000 u
b1000 ("
b10001000100 ."
b10001000100 M"
b0 ,"
b0 R"
b100010000 >
b100010000 -"
1X
0\
b100000 /"
b100000000010100000100011 2"
b100000000010100000100011 4"
b1000100 J
b1000100 F"
b100100 L
b100100 w
b100100 3"
b101100 H
b101100 E"
b101000 I
b101000 0"
b101000 9"
b101000 D"
b10111 .
1'
#1175
0'
